csv/tek0002.csv

Model,DPO3034
Firmware Version,2.07

Point Format,Y
Horizontal Units,S
Horizontal Scale,200
Sample Interval,0.2
Record Length,10000
Gating,0.0% to 100.0%
Probe Attenuation,10
Vertical Units,V
Vertical Offset,0
Vertical Scale,2
Label,
TIME,CH1
-1.000e+03,4.24844
-9.998e+02,4.24781
-9.996e+02,4.24781
-9.994e+02,4.24688
-9.992e+02,4.2475
-9.990e+02,4.24875
-9.988e+02,4.24906
-9.986e+02,4.24875
-9.984e+02,4.24875
-9.982e+02,4.24875
-9.980e+02,4.24875
-9.978e+02,4.24781
-9.976e+02,4.24844
-9.974e+02,4.24844
-9.972e+02,4.24844
-9.970e+02,4.25
-9.968e+02,4.24969
-9.966e+02,4.25
-9.964e+02,4.24906
-9.962e+02,4.24906
-9.960e+02,4.24875
-9.958e+02,4.24969
-9.956e+02,4.24906
-9.954e+02,4.24906
-9.952e+02,4.24812
-9.950e+02,4.24844
-9.948e+02,4.24875
-9.946e+02,4.24844
-9.944e+02,4.24844
-9.942e+02,4.24812
-9.940e+02,4.24656
-9.938e+02,4.24688
-9.936e+02,4.24844
-9.934e+02,4.24906
-9.932e+02,4.24781
-9.930e+02,4.24844
-9.928e+02,4.24781
-9.926e+02,4.24812
-9.924e+02,4.24906
-9.922e+02,4.24937
-9.920e+02,4.24937
-9.918e+02,4.24844
-9.916e+02,4.2475
-9.914e+02,4.24688
-9.912e+02,4.24688
-9.910e+02,4.2475
-9.908e+02,4.24688
-9.906e+02,4.24625
-9.904e+02,4.24625
-9.902e+02,4.24844
-9.900e+02,4.24688
-9.898e+02,4.24688
-9.896e+02,4.24812
-9.894e+02,4.2475
-9.892e+02,4.24812
-9.890e+02,4.24688
-9.888e+02,4.24656
-9.886e+02,4.24781
-9.884e+02,4.2475
-9.882e+02,4.24563
-9.880e+02,4.24625
-9.878e+02,4.24594
-9.876e+02,4.24625
-9.874e+02,4.24594
-9.872e+02,4.175
-9.870e+02,4.1425
-9.868e+02,4.12938
-9.866e+02,4.12875
-9.864e+02,4.12875
-9.862e+02,4.12938
-9.860e+02,4.13063
-9.858e+02,4.13094
-9.856e+02,4.12969
-9.854e+02,4.12938
-9.852e+02,4.12969
-9.850e+02,4.12969
-9.848e+02,4.12906
-9.846e+02,4.12969
-9.844e+02,4.12938
-9.842e+02,4.12875
-9.840e+02,4.12875
-9.838e+02,4.12875
-9.836e+02,4.12875
-9.834e+02,4.12781
-9.832e+02,4.12656
-9.830e+02,4.12594
-9.828e+02,4.12344
-9.826e+02,4.12344
-9.824e+02,4.12406
-9.822e+02,4.12375
-9.820e+02,4.1225
-9.818e+02,4.12281
-9.816e+02,4.12312
-9.814e+02,4.12312
-9.812e+02,4.12312
-9.810e+02,4.12188
-9.808e+02,4.12125
-9.806e+02,4.12063
-9.804e+02,4.12031
-9.802e+02,4.11937
-9.800e+02,4.11844
-9.798e+02,4.11844
-9.796e+02,4.11875
-9.794e+02,4.11906
-9.792e+02,4.11813
-9.790e+02,4.11719
-9.788e+02,4.11719
-9.786e+02,4.1175
-9.784e+02,4.11625
-9.782e+02,4.1175
-9.780e+02,4.11656
-9.778e+02,4.115
-9.776e+02,4.11375
-9.774e+02,4.11375
-9.772e+02,4.11375
-9.770e+02,4.11531
-9.768e+02,4.11469
-9.766e+02,4.11406
-9.764e+02,4.11313
-9.762e+02,4.1125
-9.760e+02,4.1125
-9.758e+02,4.11125
-9.756e+02,4.11125
-9.754e+02,4.11125
-9.752e+02,4.11156
-9.750e+02,4.11125
-9.748e+02,4.11062
-9.746e+02,4.10938
-9.744e+02,4.10875
-9.742e+02,4.10844
-9.740e+02,4.10813
-9.738e+02,4.10844
-9.736e+02,4.10813
-9.734e+02,4.10781
-9.732e+02,4.10625
-9.730e+02,4.10625
-9.728e+02,4.10594
-9.726e+02,4.10656
-9.724e+02,4.10688
-9.722e+02,4.10562
-9.720e+02,4.10562
-9.718e+02,4.10562
-9.716e+02,4.10531
-9.714e+02,4.10344
-9.712e+02,4.10313
-9.710e+02,4.10344
-9.708e+02,4.1025
-9.706e+02,4.10281
-9.704e+02,4.1025
-9.702e+02,4.10313
-9.700e+02,4.10187
-9.698e+02,4.10062
-9.696e+02,4.09969
-9.694e+02,4.10031
-9.692e+02,4.10031
-9.690e+02,4.09938
-9.688e+02,4.0975
-9.686e+02,4.0975
-9.684e+02,4.09813
-9.682e+02,4.09906
-9.680e+02,4.0975
-9.678e+02,4.0975
-9.676e+02,4.09687
-9.674e+02,4.09656
-9.672e+02,4.0975
-9.670e+02,4.09813
-9.668e+02,4.09875
-9.666e+02,4.09781
-9.664e+02,4.09656
-9.662e+02,4.09656
-9.660e+02,4.09594
-9.658e+02,4.09563
-9.656e+02,4.09594
-9.654e+02,4.09563
-9.652e+02,4.09531
-9.650e+02,4.09594
-9.648e+02,4.09438
-9.646e+02,4.09406
-9.644e+02,4.09406
-9.642e+02,4.09344
-9.640e+02,4.09375
-9.638e+02,4.09219
-9.636e+02,4.09125
-9.634e+02,4.09094
-9.632e+02,4.09125
-9.630e+02,4.09156
-9.628e+02,4.09125
-9.626e+02,4.09156
-9.624e+02,4.09125
-9.622e+02,4.08938
-9.620e+02,4.08812
-9.618e+02,4.08875
-9.616e+02,4.0875
-9.614e+02,4.08688
-9.612e+02,4.08688
-9.610e+02,4.08719
-9.608e+02,4.08719
-9.606e+02,4.08812
-9.604e+02,4.08688
-9.602e+02,4.08688
-9.600e+02,4.08719
-9.598e+02,4.08594
-9.596e+02,4.08594
-9.594e+02,4.08656
-9.592e+02,4.08656
-9.590e+02,4.085
-9.588e+02,4.08469
-9.586e+02,4.08281
-9.584e+02,4.08375
-9.582e+02,4.08406
-9.580e+02,4.08375
-9.578e+02,4.08219
-9.576e+02,4.08188
-9.574e+02,4.08125
-9.572e+02,4.08125
-9.570e+02,4.08094
-9.568e+02,4.08094
-9.566e+02,4.08188
-9.564e+02,4.08094
-9.562e+02,4.08063
-9.560e+02,4.08
-9.558e+02,4.07875
-9.556e+02,4.07969
-9.554e+02,4.07969
-9.552e+02,4.07906
-9.550e+02,4.07875
-9.548e+02,4.07937
-9.546e+02,4.07937
-9.544e+02,4.07937
-9.542e+02,4.08063
-9.540e+02,4.08031
-9.538e+02,4.07906
-9.536e+02,4.07844
-9.534e+02,4.0775
-9.532e+02,4.07812
-9.530e+02,4.0775
-9.528e+02,4.0775
-9.526e+02,4.07812
-9.524e+02,4.07812
-9.522e+02,4.07812
-9.520e+02,4.07781
-9.518e+02,4.07781
-9.516e+02,4.07812
-9.514e+02,4.07688
-9.512e+02,4.075
-9.510e+02,4.07469
-9.508e+02,4.07563
-9.506e+02,4.07531
-9.504e+02,4.075
-9.502e+02,4.07469
-9.500e+02,4.075
-9.498e+02,4.07469
-9.496e+02,4.07375
-9.494e+02,4.07375
-9.492e+02,4.07344
-9.490e+02,4.07125
-9.488e+02,4.07125
-9.486e+02,4.07219
-9.484e+02,4.07125
-9.482e+02,4.07094
-9.480e+02,4.07062
-9.478e+02,4.07125
-9.476e+02,4.07125
-9.474e+02,4.07
-9.472e+02,4.07031
-9.470e+02,4.07
-9.468e+02,4.07031
-9.466e+02,4.07125
-9.464e+02,4.07156
-9.462e+02,4.07156
-9.460e+02,4.07125
-9.458e+02,4.07094
-9.456e+02,4.07062
-9.454e+02,4.07031
-9.452e+02,4.07
-9.450e+02,4.07062
-9.448e+02,4.06969
-9.446e+02,4.06937
-9.444e+02,4.06844
-9.442e+02,4.06875
-9.440e+02,4.06906
-9.438e+02,4.0675
-9.436e+02,4.06719
-9.434e+02,4.06781
-9.432e+02,4.06844
-9.430e+02,4.06688
-9.428e+02,4.06688
-9.426e+02,4.06719
-9.424e+02,4.06719
-9.422e+02,4.06813
-9.420e+02,4.06781
-9.418e+02,4.06688
-9.416e+02,4.06719
-9.414e+02,4.06719
-9.412e+02,4.06625
-9.410e+02,4.06625
-9.408e+02,4.06688
-9.406e+02,4.0675
-9.404e+02,4.06719
-9.402e+02,4.06688
-9.400e+02,4.06562
-9.398e+02,4.065
-9.396e+02,4.06469
-9.394e+02,4.06562
-9.392e+02,4.06625
-9.390e+02,4.06625
-9.388e+02,4.06531
-9.386e+02,4.06562
-9.384e+02,4.06531
-9.382e+02,4.065
-9.380e+02,4.06562
-9.378e+02,4.065
-9.376e+02,4.065
-9.374e+02,4.06531
-9.372e+02,4.06562
-9.370e+02,4.06469
-9.368e+02,4.06562
-9.366e+02,4.06344
-9.364e+02,4.065
-9.362e+02,4.06531
-9.360e+02,4.06406
-9.358e+02,4.06469
-9.356e+02,4.06469
-9.354e+02,4.06313
-9.352e+02,4.06281
-9.350e+02,4.06187
-9.348e+02,4.06219
-9.346e+02,4.06094
-9.344e+02,4.06187
-9.342e+02,4.06219
-9.340e+02,4.06156
-9.338e+02,4.06187
-9.336e+02,4.06187
-9.334e+02,4.06
-9.332e+02,4.06062
-9.330e+02,4.05969
-9.328e+02,4.05938
-9.326e+02,4.05906
-9.324e+02,4.05938
-9.322e+02,4.05906
-9.320e+02,4.05844
-9.318e+02,4.05875
-9.316e+02,4.05844
-9.314e+02,4.05906
-9.312e+02,4.05781
-9.310e+02,4.0575
-9.308e+02,4.05719
-9.306e+02,4.05719
-9.304e+02,4.05656
-9.302e+02,4.05813
-9.300e+02,4.05719
-9.298e+02,4.0575
-9.296e+02,4.05781
-9.294e+02,4.05844
-9.292e+02,4.05781
-9.290e+02,4.05719
-9.288e+02,4.05687
-9.286e+02,4.05719
-9.284e+02,4.05813
-9.282e+02,4.05781
-9.280e+02,4.0575
-9.278e+02,4.0575
-9.276e+02,4.05813
-9.274e+02,4.0575
-9.272e+02,4.05687
-9.270e+02,4.05687
-9.268e+02,4.05625
-9.266e+02,4.05625
-9.264e+02,4.05531
-9.262e+02,4.05563
-9.260e+02,4.05625
-9.258e+02,4.05687
-9.256e+02,4.05656
-9.254e+02,4.05687
-9.252e+02,4.05563
-9.250e+02,4.05531
-9.248e+02,4.05531
-9.246e+02,4.05406
-9.244e+02,4.05531
-9.242e+02,4.05375
-9.240e+02,4.05375
-9.238e+02,4.05312
-9.236e+02,4.05344
-9.234e+02,4.05406
-9.232e+02,4.05344
-9.230e+02,4.05469
-9.228e+02,4.05531
-9.226e+02,4.05438
-9.224e+02,4.05312
-9.222e+02,4.05312
-9.220e+02,4.05312
-9.218e+02,4.05281
-9.216e+02,4.05375
-9.214e+02,4.05281
-9.212e+02,4.0525
-9.210e+02,4.05281
-9.208e+02,4.05156
-9.206e+02,4.05219
-9.204e+02,4.05156
-9.202e+02,4.05
-9.200e+02,4.05031
-9.198e+02,4.05125
-9.196e+02,4.05
-9.194e+02,4.04938
-9.192e+02,4.04938
-9.190e+02,4.04938
-9.188e+02,4.04906
-9.186e+02,4.05
-9.184e+02,4.05
-9.182e+02,4.04906
-9.180e+02,4.04938
-9.178e+02,4.04875
-9.176e+02,4.05031
-9.174e+02,4.04969
-9.172e+02,4.05125
-9.170e+02,4.05
-9.168e+02,4.04969
-9.166e+02,4.04969
-9.164e+02,4.04906
-9.162e+02,4.04844
-9.160e+02,4.04844
-9.158e+02,4.04812
-9.156e+02,4.04688
-9.154e+02,4.04719
-9.152e+02,4.04719
-9.150e+02,4.04656
-9.148e+02,4.04656
-9.146e+02,4.04719
-9.144e+02,4.04688
-9.142e+02,4.04656
-9.140e+02,4.04625
-9.138e+02,4.045
-9.136e+02,4.04625
-9.134e+02,4.04656
-9.132e+02,4.04688
-9.130e+02,4.04656
-9.128e+02,4.04656
-9.126e+02,4.04688
-9.124e+02,4.04656
-9.122e+02,4.04656
-9.120e+02,4.04688
-9.118e+02,4.04719
-9.116e+02,4.04719
-9.114e+02,4.04688
-9.112e+02,4.04563
-9.110e+02,4.04563
-9.108e+02,4.04594
-9.106e+02,4.04406
-9.104e+02,4.04469
-9.102e+02,4.04563
-9.100e+02,4.04406
-9.098e+02,4.04438
-9.096e+02,4.04438
-9.094e+02,4.04375
-9.092e+02,4.04438
-9.090e+02,4.04312
-9.088e+02,4.04344
-9.086e+02,4.04375
-9.084e+02,4.04312
-9.082e+02,4.04344
-9.080e+02,4.04281
-9.078e+02,4.04312
-9.076e+02,4.0425
-9.074e+02,4.04312
-9.072e+02,4.04344
-9.070e+02,4.04312
-9.068e+02,4.04219
-9.066e+02,4.04125
-9.064e+02,4.04063
-9.062e+02,4.04125
-9.060e+02,4.04188
-9.058e+02,4.04312
-9.056e+02,4.04219
-9.054e+02,4.04219
-9.052e+02,4.04094
-9.050e+02,4.04094
-9.048e+02,4.04063
-9.046e+02,4.04094
-9.044e+02,4.04125
-9.042e+02,4.04156
-9.040e+02,4.04094
-9.038e+02,4.04063
-9.036e+02,4.04063
-9.034e+02,4.04031
-9.032e+02,4.04094
-9.030e+02,4.04031
-9.028e+02,4.03969
-9.026e+02,4.04063
-9.024e+02,4.04063
-9.022e+02,4.04031
-9.020e+02,4.04063
-9.018e+02,4.04156
-9.016e+02,4.0425
-9.014e+02,4.04156
-9.012e+02,4.04094
-9.010e+02,4.03969
-9.008e+02,4.04063
-9.006e+02,4.04063
-9.004e+02,4.04125
-9.002e+02,4.03969
-9.000e+02,4.04063
-8.998e+02,4.04031
-8.996e+02,4.04063
-8.994e+02,4.03906
-8.992e+02,4.03844
-8.990e+02,4.03906
-8.988e+02,4.03875
-8.986e+02,4.03937
-8.984e+02,4.03875
-8.982e+02,4.03781
-8.980e+02,4.0375
-8.978e+02,4.03812
-8.976e+02,4.03688
-8.974e+02,4.03719
-8.972e+02,4.03844
-8.970e+02,4.03812
-8.968e+02,4.03781
-8.966e+02,4.03781
-8.964e+02,4.03719
-8.962e+02,4.0375
-8.960e+02,4.03719
-8.958e+02,4.03719
-8.956e+02,4.03625
-8.954e+02,4.03625
-8.952e+02,4.03688
-8.950e+02,4.03719
-8.948e+02,4.0375
-8.946e+02,4.03844
-8.944e+02,4.03875
-8.942e+02,4.03906
-8.940e+02,4.03844
-8.938e+02,4.03656
-8.936e+02,4.03563
-8.934e+02,4.0375
-8.932e+02,4.03719
-8.930e+02,4.03625
-8.928e+02,4.03594
-8.926e+02,4.03563
-8.924e+02,4.03625
-8.922e+02,4.0375
-8.920e+02,4.03781
-8.918e+02,4.03688
-8.916e+02,4.03688
-8.914e+02,4.03656
-8.912e+02,4.03688
-8.910e+02,4.03656
-8.908e+02,4.03594
-8.906e+02,4.03531
-8.904e+02,4.03594
-8.902e+02,4.03656
-8.900e+02,4.03594
-8.898e+02,4.035
-8.896e+02,4.03437
-8.894e+02,4.035
-8.892e+02,4.03437
-8.890e+02,4.03406
-8.888e+02,4.03375
-8.886e+02,4.03375
-8.884e+02,4.03156
-8.882e+02,4.03125
-8.880e+02,4.03125
-8.878e+02,4.03062
-8.876e+02,4.03031
-8.874e+02,4.03094
-8.872e+02,4.03062
-8.870e+02,4.03031
-8.868e+02,4.03
-8.866e+02,4.02906
-8.864e+02,4.02875
-8.862e+02,4.02844
-8.860e+02,4.02969
-8.858e+02,4.03
-8.856e+02,4.02906
-8.854e+02,4.02969
-8.852e+02,4.03
-8.850e+02,4.02906
-8.848e+02,4.02969
-8.846e+02,4.03094
-8.844e+02,4.03094
-8.842e+02,4.03
-8.840e+02,4.02969
-8.838e+02,4.02875
-8.836e+02,4.02875
-8.834e+02,4.02906
-8.832e+02,4.03
-8.830e+02,4.02875
-8.828e+02,4.02875
-8.826e+02,4.0275
-8.824e+02,4.02688
-8.822e+02,4.02781
-8.820e+02,4.02875
-8.818e+02,4.02875
-8.816e+02,4.02875
-8.814e+02,4.02813
-8.812e+02,4.02844
-8.810e+02,4.02813
-8.808e+02,4.02844
-8.806e+02,4.02875
-8.804e+02,4.02781
-8.802e+02,4.02875
-8.800e+02,4.02813
-8.798e+02,4.02781
-8.796e+02,4.02844
-8.794e+02,4.02875
-8.792e+02,4.02844
-8.790e+02,4.02844
-8.788e+02,4.02844
-8.786e+02,4.0275
-8.784e+02,4.0275
-8.782e+02,4.02781
-8.780e+02,4.02813
-8.778e+02,4.02688
-8.776e+02,4.02656
-8.774e+02,4.02594
-8.772e+02,4.02562
-8.770e+02,4.025
-8.768e+02,4.02562
-8.766e+02,4.02594
-8.764e+02,4.02594
-8.762e+02,4.02562
-8.760e+02,4.02562
-8.758e+02,4.02594
-8.756e+02,4.0275
-8.754e+02,4.02625
-8.752e+02,4.02594
-8.750e+02,4.025
-8.748e+02,4.02469
-8.746e+02,4.025
-8.744e+02,4.025
-8.742e+02,4.02531
-8.740e+02,4.02438
-8.738e+02,4.02656
-8.736e+02,4.02688
-8.734e+02,4.02562
-8.732e+02,4.02625
-8.730e+02,4.02656
-8.728e+02,4.02562
-8.726e+02,4.02531
-8.724e+02,4.02438
-8.722e+02,4.02438
-8.720e+02,4.025
-8.718e+02,4.02375
-8.716e+02,4.02375
-8.714e+02,4.02375
-8.712e+02,4.02344
-8.710e+02,4.02469
-8.708e+02,4.02469
-8.706e+02,4.02344
-8.704e+02,4.0225
-8.702e+02,4.0225
-8.700e+02,4.02313
-8.698e+02,4.02344
-8.696e+02,4.02344
-8.694e+02,4.02344
-8.692e+02,4.0225
-8.690e+02,4.0225
-8.688e+02,4.02187
-8.686e+02,4.02219
-8.684e+02,4.0225
-8.682e+02,4.02187
-8.680e+02,4.02219
-8.678e+02,4.02156
-8.676e+02,4.02125
-8.674e+02,4.02125
-8.672e+02,4.02187
-8.670e+02,4.0225
-8.668e+02,4.02313
-8.666e+02,4.02281
-8.664e+02,4.02187
-8.662e+02,4.0225
-8.660e+02,4.02344
-8.658e+02,4.02281
-8.656e+02,4.02281
-8.654e+02,4.02187
-8.652e+02,4.02187
-8.650e+02,4.0225
-8.648e+02,4.02281
-8.646e+02,4.02281
-8.644e+02,4.02187
-8.642e+02,4.02125
-8.640e+02,4.02187
-8.638e+02,4.02187
-8.636e+02,4.02062
-8.634e+02,4.02062
-8.632e+02,4.02156
-8.630e+02,4.02125
-8.628e+02,4.02125
-8.626e+02,4.02062
-8.624e+02,4.02031
-8.622e+02,4.01969
-8.620e+02,4.01906
-8.618e+02,4.01844
-8.616e+02,4.01938
-8.614e+02,4.0175
-8.612e+02,4.01781
-8.610e+02,4.01906
-8.608e+02,4.02062
-8.606e+02,4.02094
-8.604e+02,4.02062
-8.602e+02,4.02031
-8.600e+02,4.01844
-8.598e+02,4.01969
-8.596e+02,4.01938
-8.594e+02,4.01969
-8.592e+02,4.02031
-8.590e+02,4.02
-8.588e+02,4.01938
-8.586e+02,4.01969
-8.584e+02,4.01906
-8.582e+02,4.0175
-8.580e+02,4.0175
-8.578e+02,4.01656
-8.576e+02,4.01625
-8.574e+02,4.01594
-8.572e+02,4.01687
-8.570e+02,4.01625
-8.568e+02,4.01656
-8.566e+02,4.01625
-8.564e+02,4.01687
-8.562e+02,4.01594
-8.560e+02,4.01562
-8.558e+02,4.01531
-8.556e+02,4.01562
-8.554e+02,4.01656
-8.552e+02,4.0175
-8.550e+02,4.01781
-8.548e+02,4.01656
-8.546e+02,4.01625
-8.544e+02,4.01594
-8.542e+02,4.01687
-8.540e+02,4.01656
-8.538e+02,4.01656
-8.536e+02,4.01687
-8.534e+02,4.0175
-8.532e+02,4.0175
-8.530e+02,4.01625
-8.528e+02,4.01656
-8.526e+02,4.01719
-8.524e+02,4.0175
-8.522e+02,4.01813
-8.520e+02,4.01844
-8.518e+02,4.01687
-8.516e+02,4.01656
-8.514e+02,4.01594
-8.512e+02,4.01656
-8.510e+02,4.01625
-8.508e+02,4.01625
-8.506e+02,4.01594
-8.504e+02,4.01562
-8.502e+02,4.01562
-8.500e+02,4.01531
-8.498e+02,4.015
-8.496e+02,4.01531
-8.494e+02,4.01531
-8.492e+02,4.01562
-8.490e+02,4.01594
-8.488e+02,4.01687
-8.486e+02,4.01719
-8.484e+02,4.01469
-8.482e+02,4.01469
-8.480e+02,4.01406
-8.478e+02,4.01469
-8.476e+02,4.015
-8.474e+02,4.01531
-8.472e+02,4.01562
-8.470e+02,4.01594
-8.468e+02,4.01531
-8.466e+02,4.01594
-8.464e+02,4.01562
-8.462e+02,4.01531
-8.460e+02,4.01531
-8.458e+02,4.01594
-8.456e+02,4.015
-8.454e+02,4.01562
-8.452e+02,4.015
-8.450e+02,4.01438
-8.448e+02,4.01531
-8.446e+02,4.01562
-8.444e+02,4.01438
-8.442e+02,4.015
-8.440e+02,4.01406
-8.438e+02,4.01438
-8.436e+02,4.01406
-8.434e+02,4.01469
-8.432e+02,4.015
-8.430e+02,4.01531
-8.428e+02,4.01562
-8.426e+02,4.01531
-8.424e+02,4.01625
-8.422e+02,4.01594
-8.420e+02,4.01562
-8.418e+02,4.01531
-8.416e+02,4.015
-8.414e+02,4.01406
-8.412e+02,4.01313
-8.410e+02,4.01406
-8.408e+02,4.01375
-8.406e+02,4.01469
-8.404e+02,4.01469
-8.402e+02,4.01469
-8.400e+02,4.01438
-8.398e+02,4.01438
-8.396e+02,4.01375
-8.394e+02,4.01313
-8.392e+02,4.01313
-8.390e+02,4.0125
-8.388e+02,4.01219
-8.386e+02,4.01187
-8.384e+02,4.01094
-8.382e+02,4.01125
-8.380e+02,4.01125
-8.378e+02,4.01156
-8.376e+02,4.01156
-8.374e+02,4.01156
-8.372e+02,4.01156
-8.370e+02,4.01187
-8.368e+02,4.0125
-8.366e+02,4.0125
-8.364e+02,4.01125
-8.362e+02,4.01125
-8.360e+02,4.01187
-8.358e+02,4.01187
-8.356e+02,4.01187
-8.354e+02,4.01187
-8.352e+02,4.01219
-8.350e+02,4.01125
-8.348e+02,4.01125
-8.346e+02,4.01219
-8.344e+02,4.01063
-8.342e+02,4.00969
-8.340e+02,4.01031
-8.338e+02,4.01125
-8.336e+02,4.00938
-8.334e+02,4.01
-8.332e+02,4.01094
-8.330e+02,4.01156
-8.328e+02,4.01219
-8.326e+02,4.01219
-8.324e+02,4.01156
-8.322e+02,4.01094
-8.320e+02,4.01125
-8.318e+02,4.01094
-8.316e+02,4.01125
-8.314e+02,4.01187
-8.312e+02,4.01156
-8.310e+02,4.01125
-8.308e+02,4.01
-8.306e+02,4.01031
-8.304e+02,4.01156
-8.302e+02,4.01187
-8.300e+02,4.01094
-8.298e+02,4.01156
-8.296e+02,4.0125
-8.294e+02,4.0125
-8.292e+02,4.01219
-8.290e+02,4.01187
-8.288e+02,4.01187
-8.286e+02,4.01156
-8.284e+02,4.01
-8.282e+02,4.01031
-8.280e+02,4.01125
-8.278e+02,4.01125
-8.276e+02,4.01187
-8.274e+02,4.01031
-8.272e+02,4.00844
-8.270e+02,4.01031
-8.268e+02,4.00969
-8.266e+02,4.00906
-8.264e+02,4.00906
-8.262e+02,4.01
-8.260e+02,4.01063
-8.258e+02,4.00969
-8.256e+02,4.01031
-8.254e+02,4.01031
-8.252e+02,4.01063
-8.250e+02,4.00938
-8.248e+02,4.00969
-8.246e+02,4.01
-8.244e+02,4.01031
-8.242e+02,4.00969
-8.240e+02,4.00969
-8.238e+02,4.00906
-8.236e+02,4.01
-8.234e+02,4.01
-8.232e+02,4.00969
-8.230e+02,4.00938
-8.228e+02,4.00906
-8.226e+02,4.01063
-8.224e+02,4.00969
-8.222e+02,4.00875
-8.220e+02,4.01
-8.218e+02,4.00969
-8.216e+02,4.01031
-8.214e+02,4.00969
-8.212e+02,4.00906
-8.210e+02,4.00906
-8.208e+02,4.00781
-8.206e+02,4.00906
-8.204e+02,4.00781
-8.202e+02,4.00625
-8.200e+02,4.00563
-8.198e+02,4.00625
-8.196e+02,4.00625
-8.194e+02,4.00719
-8.192e+02,4.00594
-8.190e+02,4.00594
-8.188e+02,4.00719
-8.186e+02,4.00781
-8.184e+02,4.0075
-8.182e+02,4.0075
-8.180e+02,4.00938
-8.178e+02,4.01
-8.176e+02,4.00938
-8.174e+02,4.00938
-8.172e+02,4.00938
-8.170e+02,4.00906
-8.168e+02,4.00875
-8.166e+02,4.00781
-8.164e+02,4.0075
-8.162e+02,4.00719
-8.160e+02,4.00719
-8.158e+02,4.00687
-8.156e+02,4.00656
-8.154e+02,4.00719
-8.152e+02,4.00563
-8.150e+02,4.00625
-8.148e+02,4.00563
-8.146e+02,4.00594
-8.144e+02,4.005
-8.142e+02,4.00469
-8.140e+02,4.00375
-8.138e+02,4.00469
-8.136e+02,4.00469
-8.134e+02,4.00531
-8.132e+02,4.005
-8.130e+02,4.00563
-8.128e+02,4.00531
-8.126e+02,4.00531
-8.124e+02,4.00594
-8.122e+02,4.005
-8.120e+02,4.00438
-8.118e+02,4.005
-8.116e+02,4.00625
-8.114e+02,4.00594
-8.112e+02,4.00656
-8.110e+02,4.00594
-8.108e+02,4.00531
-8.106e+02,4.00406
-8.104e+02,4.00344
-8.102e+02,4.00438
-8.100e+02,4.00375
-8.098e+02,4.00438
-8.096e+02,4.00375
-8.094e+02,4.00531
-8.092e+02,4.00594
-8.090e+02,4.005
-8.088e+02,4.00563
-8.086e+02,4.005
-8.084e+02,4.00438
-8.082e+02,4.00469
-8.080e+02,4.00594
-8.078e+02,4.00531
-8.076e+02,4.00531
-8.074e+02,4.00563
-8.072e+02,4.00625
-8.070e+02,4.00594
-8.068e+02,4.00594
-8.066e+02,4.00625
-8.064e+02,4.00469
-8.062e+02,4.00531
-8.060e+02,4.00438
-8.058e+02,4.00438
-8.056e+02,4.00563
-8.054e+02,4.00563
-8.052e+02,4.00563
-8.050e+02,4.00563
-8.048e+02,4.005
-8.046e+02,4.00469
-8.044e+02,4.00438
-8.042e+02,4.00438
-8.040e+02,4.005
-8.038e+02,4.00594
-8.036e+02,4.00656
-8.034e+02,4.00719
-8.032e+02,4.00875
-8.030e+02,4.00906
-8.028e+02,4.00469
-8.026e+02,4.00438
-8.024e+02,4.00469
-8.022e+02,4.00375
-8.020e+02,4.00406
-8.018e+02,4.00438
-8.016e+02,4.00469
-8.014e+02,4.00469
-8.012e+02,4.00438
-8.010e+02,4.00312
-8.008e+02,4.0025
-8.006e+02,4.00344
-8.004e+02,4.00406
-8.002e+02,4.00344
-8.000e+02,4.00344
-7.998e+02,4.00406
-7.996e+02,4.00438
-7.994e+02,4.00438
-7.992e+02,4.00344
-7.990e+02,4.00375
-7.988e+02,4.00125
-7.986e+02,4.00063
-7.984e+02,4.00156
-7.982e+02,4.00312
-7.980e+02,4.00312
-7.978e+02,4.00312
-7.976e+02,4.0025
-7.974e+02,4.00125
-7.972e+02,4.00125
-7.970e+02,4.00094
-7.968e+02,4.00219
-7.966e+02,4.0025
-7.964e+02,4.0025
-7.962e+02,4.00094
-7.960e+02,4.00094
-7.958e+02,4.00094
-7.956e+02,4.00031
-7.954e+02,3.99906
-7.952e+02,3.99875
-7.950e+02,3.99906
-7.948e+02,3.99938
-7.946e+02,3.99812
-7.944e+02,3.99938
-7.942e+02,3.99969
-7.940e+02,4
-7.938e+02,4
-7.936e+02,3.99906
-7.934e+02,3.99906
-7.932e+02,3.99812
-7.930e+02,3.99812
-7.928e+02,3.99719
-7.926e+02,3.99625
-7.924e+02,3.99719
-7.922e+02,3.99688
-7.920e+02,3.99906
-7.918e+02,3.99938
-7.916e+02,3.99969
-7.914e+02,3.99844
-7.912e+02,3.99844
-7.910e+02,3.99656
-7.908e+02,3.99594
-7.906e+02,3.99688
-7.904e+02,3.99719
-7.902e+02,3.99688
-7.900e+02,3.99594
